{
    "/api": {
        "target": "http://gmp-back-end-express-api:12305",
        "secure": false,
        "changeOrigin": true,
        "pathRewrite": {
            "^/api": ""
        },
        "logLevel": "debug"
    }
}