[
    {
        "title": "Pizza",
        "price": 10.18
    },
    {
        "title": "Pizza",
        "price": 10.18
    },
    {
        "title": 1,
        "price": 10.19
    },
    {
        "title": "Tuna",
        "price": 10.20
    }
]